^C:\XILE\IPHONE\IXILE\RELEASE\BATTLE.OBJ|C:\XILE\IPHONE\IXILE\RELEASE\CONFIGURATION.OBJ|C:\XILE\IPHONE\IXILE\RELEASE\GAMEOBJECT.OBJ|C:\XILE\IPHONE\IXILE\RELEASE\INTERFACE.OBJ|C:\XILE\IPHONE\IXILE\RELEASE\ITEM.OBJ|C:\XILE\IPHONE\IXILE\RELEASE\MAIN.OBJ|C:\XILE\IPHONE\IXILE\RELEASE\MAP.OBJ|C:\XILE\IPHONE\IXILE\RELEASE\MOB.OBJ|C:\XILE\IPHONE\IXILE\RELEASE\MONSTER.OBJ|C:\XILE\IPHONE\IXILE\RELEASE\PLAYER.OBJ|C:\XILE\IPHONE\IXILE\RELEASE\RESOURCES.OBJ|C:\XILE\IPHONE\IXILE\RELEASE\SAVEDATA.OBJ|C:\XILE\IPHONE\IXILE\RELEASE\STATUS.OBJ|C:\XILE\IPHONE\IXILE\RELEASE\VECTOR2.OBJ
C:\PROGRAMAS\MICROSOFT SDKS\WINDOWS\V7.0A\LIB\KERNEL32.LIB
C:\PROGRAMAS\MICROSOFT SDKS\WINDOWS\V7.0A\LIB\USER32.LIB
C:\PROGRAMAS\MICROSOFT SDKS\WINDOWS\V7.0A\LIB\GDI32.LIB
C:\PROGRAMAS\MICROSOFT SDKS\WINDOWS\V7.0A\LIB\WINSPOOL.LIB
C:\PROGRAMAS\MICROSOFT SDKS\WINDOWS\V7.0A\LIB\COMDLG32.LIB
C:\PROGRAMAS\MICROSOFT SDKS\WINDOWS\V7.0A\LIB\ADVAPI32.LIB
C:\PROGRAMAS\MICROSOFT SDKS\WINDOWS\V7.0A\LIB\SHELL32.LIB
C:\PROGRAMAS\MICROSOFT SDKS\WINDOWS\V7.0A\LIB\OLE32.LIB
C:\PROGRAMAS\MICROSOFT SDKS\WINDOWS\V7.0A\LIB\OLEAUT32.LIB
C:\PROGRAMAS\MICROSOFT SDKS\WINDOWS\V7.0A\LIB\UUID.LIB
C:\PROGRAMAS\MICROSOFT SDKS\WINDOWS\V7.0A\LIB\ODBC32.LIB
C:\PROGRAMAS\MICROSOFT SDKS\WINDOWS\V7.0A\LIB\ODBCCP32.LIB
C:\XILE\IPHONE\IXILE\RELEASE\BATTLE.OBJ
C:\XILE\IPHONE\IXILE\RELEASE\CONFIGURATION.OBJ
C:\XILE\IPHONE\IXILE\RELEASE\GAMEOBJECT.OBJ
C:\XILE\IPHONE\IXILE\RELEASE\INTERFACE.OBJ
C:\XILE\IPHONE\IXILE\RELEASE\ITEM.OBJ
C:\XILE\IPHONE\IXILE\RELEASE\MAIN.OBJ
C:\XILE\IPHONE\IXILE\RELEASE\MAP.OBJ
C:\XILE\IPHONE\IXILE\RELEASE\MOB.OBJ
C:\XILE\IPHONE\IXILE\RELEASE\MONSTER.OBJ
C:\XILE\IPHONE\IXILE\RELEASE\PLAYER.OBJ
C:\XILE\IPHONE\IXILE\RELEASE\RESOURCES.OBJ
C:\XILE\IPHONE\IXILE\RELEASE\SAVEDATA.OBJ
C:\XILE\IPHONE\IXILE\RELEASE\STATUS.OBJ
C:\XILE\IPHONE\IXILE\RELEASE\VECTOR2.OBJ
C:\PROGRAMAS\MICROSOFT VISUAL STUDIO 10.0\VC\BIN\C2.DLL
C:\DRAGONFIRESDK\DRAGONFIRESDK.LIB
C:\PROGRAMAS\MICROSOFT VISUAL STUDIO 10.0\VC\LIB\LIBCMT.LIB
C:\PROGRAMAS\MICROSOFT VISUAL STUDIO 10.0\VC\LIB\OLDNAMES.LIB
C:\PROGRAMAS\MICROSOFT VISUAL STUDIO 10.0\VC\LIB\LIBCPMT.LIB
C:\PROGRAMAS\MICROSOFT VISUAL STUDIO 10.0\VC\BIN\1033\LINKUI.DLL
